﻿Adil Tito Pamungkas,XI DPIB 1,DPIB
Akmal Dicky Rizaldi,XI DPIB 1,DPIB
Alif Fuad Rifai,XI DPIB 1,DPIB
Arda Defrian Saputra,XI DPIB 1,DPIB
Astrini Pujika Pinasthi,XI DPIB 1,DPIB
Dalis Aldi Perdana,XI DPIB 1,DPIB
Dea Puspitasari,XI DPIB 1,DPIB
Defri Abim Pambudi,XI DPIB 1,DPIB
Dimas Rizki Sayfudin,XI DPIB 1,DPIB
Flandy Alvin Mahardika,XI DPIB 1,DPIB
Gempar Bagus Wahyu Baskoro,XI DPIB 1,DPIB
Giovany Pratanda Angga Utama,XI DPIB 1,DPIB
Gusti Praditia Pratama,XI DPIB 1,DPIB
Hanif Muhammad Lutfi,XI DPIB 1,DPIB
Indratma Yudha Dwi Pratama,XI DPIB 1,DPIB
Muhammad Firdaus,XI DPIB 1,DPIB
Muhammad Zakka Albana,XI DPIB 1,DPIB
Nadia January,XI DPIB 1,DPIB
Nur Anni Rofiqoh,XI DPIB 1,DPIB
Rafa Diaz Frendika,XI DPIB 1,DPIB
Salsabilla Gaisa Suraya Irawan,XI DPIB 1,DPIB
Sheva Nindi Ardiana,XI DPIB 1,DPIB
Tri Hapsoro Yudho Permono,XI DPIB 1,DPIB
Widya Yudha Radelya,XI DPIB 1,DPIB
Alfried Axellavida Al- Arif,XI DPIB 2,DPIB
Alif Fairuzzabadi Putra,XI DPIB 2,DPIB
Ariza Anjar Arviansah,XI DPIB 2,DPIB
Briliant Rulsino Rangga Putra,XI DPIB 2,DPIB
Dava Ardiyanto,XI DPIB 2,DPIB
Davien Cahya Riansyah Putra,XI DPIB 2,DPIB
Edo Nuraini Agustiarno,XI DPIB 2,DPIB
Fais Achmad Muzaki,XI DPIB 2,DPIB
Fattahilla Pratama Riyan Qurnaditya,XI DPIB 2,DPIB
Fikri Ruliawan,XI DPIB 2,DPIB
Halim Putra Ramadhan,XI DPIB 2,DPIB
Heru Prastio,XI DPIB 2,DPIB
Irvan Windar Maulidian,XI DPIB 2,DPIB
Khoinurrima Putri Sahrani,XI DPIB 2,DPIB
Kiki Adjie Triatmadja,XI DPIB 2,DPIB
Muhammad Syaif Nur Hafiz,XI DPIB 2,DPIB
Nadya Maya Pinasti,XI DPIB 2,DPIB
Rado Whilly Ardhika,XI DPIB 2,DPIB
Renal Dwi Laksono,XI DPIB 2,DPIB
Surya Anastasya Kastari,XI DPIB 2,DPIB
Widya Hari Mukti,XI DPIB 2,DPIB
Wisnu Ragil Febrianto,XI DPIB 2,DPIB
Yesika Retnowati,XI DPIB 2,DPIB
Zaky Ukasya Insani Setyawan,XI DPIB 2,DPIB
Abid Mustiko Aji,XI RPL,RPL
Agustyan Charel,XI RPL,RPL
Ahmad Yusuf,XI RPL,RPL
Arfan Fajar Pratama,XI RPL,RPL
Aziz Gilang,XI RPL,RPL
Daud Yosseffen Hutasoit,XI RPL,RPL
Erichardo Dwiva Yuda,XI RPL,RPL
Giri Perdana Kusuma,XI RPL,RPL
Ikmal Farikh,XI RPL,RPL
Jihan Chanif Dhyaksa,XI RPL,RPL
Kevin Cahyo Adhitama,XI RPL,RPL
Mario Dewantoro,XI RPL,RPL
Maulana Zakaria Riezal,XI RPL,RPL
Muhamad Nanda Bayu Saputra,XI RPL,RPL
Ollyvia Nur Rizky,XI RPL,RPL
Rahmat Zidan Setia Pangestu,XI RPL,RPL
Rio Dwi Ramadlan,XI RPL,RPL
Riska Damayanti,XI RPL,RPL
Salman Alfarizi,XI RPL,RPL
Viky Yoga Saputra,XI RPL,RPL
Yanuar Afrizal Putra,XI RPL,RPL
Yoga Cahya Rickitama,XI RPL,RPL
Adeo Marcelino,XI TKJ 1,TKJ
Alfian Rifki Firnanda,XI TKJ 1,TKJ
Andi Tri Utomo,XI TKJ 1,TKJ
Arif Setyawan,XI TKJ 1,TKJ
Azahra,XI TKJ 1,TKJ
Bima Eka Saputra,XI TKJ 1,TKJ
Cellin Marcella Avrilya,XI TKJ 1,TKJ
Dafa Cahya Maulana,XI TKJ 1,TKJ
Danang Nugroho Priyambodo,XI TKJ 1,TKJ
Dimas Ganda Pratama,XI TKJ 1,TKJ
Doni Ariansyah,XI TKJ 1,TKJ
Eki Zuwarini,XI TKJ 1,TKJ
Fahriza Afif Nisya Fajar,XI TKJ 1,TKJ
Fairus Rafi Deka Kautsar,XI TKJ 1,TKJ
Fandy Ahmad Al Zidan,XI TKJ 1,TKJ
Fivi Nur Apriliatin Dwi Saputri,XI TKJ 1,TKJ
Intan Arima Priyanti,XI TKJ 1,TKJ
Intan Ika Rizkyna,XI TKJ 1,TKJ
Laras Puspitasari,XI TKJ 1,TKJ
Laras Tri Setia Ningsih,XI TKJ 1,TKJ
Muhamad Nasrudin Adi Pratama,XI TKJ 1,TKJ
Muhammad Nasikin Aditya,XI TKJ 1,TKJ
Muhammad Rafi Musyaffa,XI TKJ 1,TKJ
Muhammad Shiroth Juddin Yusa,XI TKJ 1,TKJ
Rafli Adifta Ananda,XI TKJ 1,TKJ
Rafli Andika Yudhantara,XI TKJ 1,TKJ
Rahmat Margiono,XI TKJ 1,TKJ
Rexa Audria Sandi,XI TKJ 1,TKJ
Rismawati,XI TKJ 1,TKJ
Rizal Ersandy,XI TKJ 1,TKJ
Rizma Khoirunisa,XI TKJ 1,TKJ
Sevandu Yuda Priyantama,XI TKJ 1,TKJ
Wahyan Mustofa,XI TKJ 1,TKJ
Wahyu Nur Hidayat,XI TKJ 1,TKJ
Yuan Wira Akbar Putra Perdana,XI TKJ 1,TKJ
Adimas Tatak Prayoga,XI TKJ 2,TKJ
Al Fahri Firda Wijaya,XI TKJ 2,TKJ
Anisa Batu Mande,XI TKJ 2,TKJ
Anton Saputro,XI TKJ 2,TKJ
Arga Restu Panuntun,XI TKJ 2,TKJ
Aswin Prasetya Husada,XI TKJ 2,TKJ
Azwin Mahendra Setiawan,XI TKJ 2,TKJ
Dea Maharani,XI TKJ 2,TKJ
Dhini Rahma Anggraini,XI TKJ 2,TKJ
Dicky Febriansyah Wibowo,XI TKJ 2,TKJ
Dimas Royan Al Firdaus,XI TKJ 2,TKJ
Dina Ayu Putri,XI TKJ 2,TKJ
Galeh Wani Prasetyo,XI TKJ 2,TKJ
Hafiyyan Nurfauza Gristiyanto,XI TKJ 2,TKJ
Halim Abdi Wijaya,XI TKJ 2,TKJ
Helen Iriani,XI TKJ 2,TKJ
Marsya Laudina Cendy,XI TKJ 2,TKJ
Melyza Putri Anjani,XI TKJ 2,TKJ
Mokhammad Reza Riskiawan,XI TKJ 2,TKJ
Muhammad Abigail Yafi'Musa,XI TKJ 2,
Nanda Gustisyah Putra Pratama,XI TKJ 2,TKJ
Nisrina Swary Satyono,XI TKJ 2,TKJ
Nurul Rahmawati,XI TKJ 2,TKJ
Pradita Arbayu Putra,XI TKJ 2,TKJ
Ravadilla Utami Setyaningrum,XI TKJ 2,TKJ
Ridho Dhiyaulhaq Firdaus,XI TKJ 2,TKJ
Rimba Jati Susanto,XI TKJ 2,TKJ
Rio Fahlefi Muafa Akmal,XI TKJ 2,TKJ
Rizal Nur Saputra,XI TKJ 2,TKJ
Siti Aulia Khairunnisha,XI TKJ 2,TKJ
Stevie Faradina Riswandari,XI TKJ 2,TKJ
Tasya Putri Yuantina,XI TKJ 2,TKJ
Vera Agista Wati,XI TKJ 2,TKJ
Yuli Rahmawati,XI TKJ 2,TKJ
Aditya Wahyu Prasetyo,XI TKJ 3,TKJ
Ahmad Dhanu Wisnu Prayoga,XI TKJ 3,TKJ
Arlan Bayu Nugroho,XI TKJ 3,TKJ
Astyo Samsudin,XI TKJ 3,TKJ
Ayuni Silvia Saputri,XI TKJ 3,TKJ
Destania Hafzah Nadira,XI TKJ 3,TKJ
Devan Nanda Sasmita,XI TKJ 3,TKJ
Devi Puspianti,XI TKJ 3,TKJ
Diffa Abilla Cahya Purnama Putra,XI TKJ 3,TKJ
Edo Nayohan,XI TKJ 3,TKJ
Eriesca Angelia Ardiyani Suparno,XI TKJ 3,TKJ
Fadhilah Surya Ramadhan,XI TKJ 3,TKJ
Hadzik Ainul Yakin,XI TKJ 3,TKJ
Handika Yudimas Nugroho,XI TKJ 3,TKJ
Heru Purwanto,XI TKJ 3,TKJ
Ifal Falah Anshori,XI TKJ 3,TKJ
Irwanda Deo Fani,XI TKJ 3,TKJ
Kika Paundra Mohandes,XI TKJ 3,TKJ
Millardo Izang Arandsa,XI TKJ 3,TKJ
Muhammad Ajay Putra Pratama,XI TKJ 3,TKJ
Muhammad Alvinandito Haryanto,XI TKJ 3,TKJ
Najhwa Putri Valensya,XI TKJ 3,TKJ
Nuril Rahmania,XI TKJ 3,TKJ
Putri Septyana,XI TKJ 3,TKJ
Rafi Eka Saputra,XI TKJ 3,TKJ
Riffan Bayu Prasetia,XI TKJ 3,TKJ
Rizki Mahendra,XI TKJ 3,TKJ
Tedi Ardanu,XI TKJ 3,TKJ
Vira Putri Andesta,XI TKJ 3,TKJ
Wahyu Eko Cahyono,XI TKJ 3,TKJ
Wisnu Wira Wardana,XI TKJ 3,TKJ
Yanti Aisya,XI TKJ 3,TKJ
Yoga Wahyu Prabowo,XI TKJ 3,TKJ
Zackye Putra Hendra Pratama,XI TKJ 3,TKJ
Zoxlien Pacxroy Zizvant Java,XI TKJ 3,TKJ
Abrian Nofa Ari Mahasta,XI MM 1,MM
Aryani Putri Lestari,XI MM 1,MM
Azhry Dwizha Surya Putri,XI MM 1,MM
Chelma Adi Utami,XI MM 1,MM
David Bagus Irawan,XI MM 1,MM
Diska Amanda Aristanti,XI MM 1,MM
Dwi Nurul Janah,XI MM 1,MM
Elka Yuda Jayantara,XI MM 1,MM
Febby Rizdarma Putra,XI MM 1,MM
Febrian Rizky Saputra,XI MM 1,MM
Fidi Ardiansyah,XI MM 1,MM
Galuh Adi Herlambang,XI MM 1,MM
Helmy Kholis Harimurti,XI MM 1,MM
Irfan Dzaky Ariffadhila,XI MM 1,MM
Maura Nathandrina Lintang Pembayun,XI MM 1,MM
Mazarina Maulina Munyati,XI MM 1,MM
Muhammad Fauzan Bagaskara,XI MM 1,MM
Muhammad Iqbal A.,XI MM 1,MM
Muhammad Rizqi Hidayat,XI MM 1,MM
Nita Putri Wulandari,XI MM 1,MM
Rahma Aprilya Sabrina,XI MM 1,MM
Rahma Widya Pratiwi,XI MM 1,MM
Randi Setya Pamungkas,XI MM 1,MM
Reza Ferdiansyah,XI MM 1,MM
Sahwa Nurohmah,XI MM 1,MM
Sarah Oktafiani,XI MM 1,MM
Tithan Arifandy Wahyu Pinilih,XI MM 1,MM
Totti Ferdiansyah Ananda,XI MM 1,MM
Uswatun Khasanah,XI MM 1,MM
Welliana Rose Sutradewi,XI MM 1,MM
Yoga Mahardhika Pratama,XI MM 1,MM
Yovianes Maya Suranto,XI MM 1,MM
Zidane Archiovelly,XI MM 1,MM
Zoelvicky Anggara,XI MM 1,MM
Angger Andriana,XI MM 2,MM
Anggun Diyah Agustina,XI MM 2,MM
Anugrahaningtyas Pramurwitasari,XI MM 2,MM
Beandra Assa Akylla,XI MM 2,MM
Bona Firmanto,XI MM 2,MM
Daniel Gmada Christiawan,XI MM 2,MM
David Nurvahmi Aziz,XI MM 2,MM
Desty Christyanti Sabatini,XI MM 2,MM
Deva Arya Putra,XI MM 2,MM
Dien Nadhif Rajih Ibrahim,XI MM 2,MM
Fazilla Putri Puristy,XI MM 2,MM
Herlinda Febrianti,XI MM 2,MM
Hitachilia Ardi Permadani Putri,XI MM 2,MM
Ihza Mahendra,XI MM 2,MM
Latondho Mulyandani,XI MM 2,MM
Mazaya Maulina Izzati,XI MM 2,MM
Melfin Putri Cahya Dewi,XI MM 2,MM
Mohamad Nofean Fitriona,XI MM 2,MM
Muhammad Adyn Pratama,XI MM 2,MM
Muhammad Alauddin Bagaskara,XI MM 2,MM
Muhammad Iqbal Ardiansyah Putra,XI MM 2,MM
Nadia Eka Yuliana,XI MM 2,MM
Nindiya Putri Fatiqah,XI MM 2,MM
Nokha Satria Utama,XI MM 2,MM
Novela Dwi Indah Sari,XI MM 2,MM
Rendi Prahardika Yuliansyah,XI MM 2,MM
Ricki Adinda Prasetya,XI MM 2,MM
Satria Dhiki Ferianto,XI MM 2,MM
Shandie Tamma Rieandra Putra,XI MM 2,MM
Sigma Regita Pinkylicollins Setyawan,XI MM 2,MM
Vikto Dyeski Prasitio,XI MM 2,MM
Wewen Adi Saputra,XI MM 2,MM
Wulan Adina,XI MM 2,MM
Yasivan Maulana Barry,XI MM 2,MM
Adinda Rahma Dani,XI UPW,UPW
Agil Yogi Prasetyo,XI UPW,UPW
Aji Masahid,XI UPW,UPW
Annas Syamsudin,XI UPW,UPW
Armyta Evriana Ramadhani,XI UPW,UPW
Aryani Caya Dewi,XI UPW,UPW
Ayunda Putry Maulita,XI UPW,UPW
Berian Dhita Shilva Arafah,XI UPW,UPW
Berlin Anjani,XI UPW,UPW
Davina Metra Gading,XI UPW,UPW
Dea Lexsa Elvira,XI UPW,UPW
Dea Wahyu Pranata,XI UPW,UPW
Dhisnita Fitria Alviany,XI UPW,UPW
Dian Alya Saputra,XI UPW,UPW
Dimas Ariya Saputra,XI UPW,UPW
Dyta Fadhilla Febrianing Tyas,XI UPW,UPW
Fredi Setiyawan,XI UPW,UPW
Jihan Tina Rahmadhani,XI UPW,UPW
Kabella Elena Margareta,XI UPW,UPW
Luneta Putri Azzahra,XI UPW,UPW
Moh. Rehant Alamsyah,XI UPW,UPW
Mohamad Andy Hakeem,XI UPW,UPW
Muhamad Fathu Nidzom,XI UPW,UPW
Muhammad Nazil Nukgroho,XI UPW,UPW
Navisa Nur Faradila,XI UPW,UPW
Nur Yasin Fidin Pradana,XI UPW,UPW
Revianis Yunia Putri,XI UPW,UPW
Rhezita Amanda Putri Anggraini,XI UPW,UPW
Risma Putri,XI UPW,UPW
Sahrul Niezam,XI UPW,UPW
Sintya Putri Wulandari,XI UPW,UPW
Vatta Purwika Rohman,XI UPW,UPW
Wahyu Nur Cahyo,XI UPW,UPW
Walimatul Khafilah,XI UPW,UPW
Wiwid Apriliani,XI UPW,UPW
Agustin Reza Fauziah Muhtar,XI TKKR,TKKR
Amanda Melly Agustin,XI TKKR,TKKR
Anisa Misriastuti,XI TKKR,TKKR
Aprilia Sandi Prasunda,XI TKKR,TKKR
Arista Novi Anggraeni,XI TKKR,TKKR
Aulia Safitri,XI TKKR,TKKR
Cindy Loise Yudianto,XI TKKR,TKKR
Dea Tria Agustina,XI TKKR,TKKR
Defira Ulsya Rohibah,XI TKKR,TKKR
Diah Apriska Dwi Noviana,XI TKKR,TKKR
Dyah Ani Zulkarnia,XI TKKR,TKKR
Dzai Dzatun Sholekha,XI TKKR,TKKR
Enggar Tri Anggraini,XI TKKR,TKKR
Griselda Nanda Afiani,XI TKKR,TKKR
Imelda Maharani,XI TKKR,TKKR
Intan Wardiana Astari,XI TKKR,TKKR
Karina Happy Wandoyo,XI TKKR,TKKR
Mareta Eka Adhel Saputri,XI TKKR,TKKR
Norma Zunisa Apriliani,XI TKKR,TKKR
Qyntara Dea Safira,XI TKKR,TKKR
Ratna Febrianti,XI TKKR,TKKR
Rehan Viani,XI TKKR,TKKR
Reshta Nazza Hani Alifia,XI TKKR,TKKR
Rini Andriani,XI TKKR,TKKR
Septi Ana Wati,XI TKKR,TKKR
Septia Astriva Dewi,XI TKKR,TKKR
Shonia Dewi Febrianti,XI TKKR,TKKR
Widya Rohma Milladunka,XI TKKR,TKKR
Wuri Wulandari,XI TKKR,TKKR
Zahra Hafizshah,XI TKKR,TKKR
Zuhrina Rahmafinta,XI TKKR,TKKR
Akhlisa Avi Liana,XI TB 1,TB
Aliya Maya Miranti,XI TB 1,TB
Anik Krisma Dianti,XI TB 1,TB
Bella Melinda,XI TB 1,TB
Dela Anandita Saputri,XI TB 1,TB
Dinata Aulia Tama,XI TB 1,TB
Dinda Rachma Neisya,XI TB 1,TB
Elsaninda Aprilia Putri,XI TB 1,TB
Fazza Aulia Rahma,XI TB 1,TB
Gati Yunitaprastika Ningsih,XI TB 1,TB
Ingge Alylla Vinyzcia,XI TB 1,TB
Intan Valentina Saputri,XI TB 1,TB
Khaylila Putri Andika,XI TB 1,TB
Kristiana Dini Aryanti,XI TB 1,TB
Kusumawati,XI TB 1,TB
Mada Dwi Surya Haliza,XI TB 1,TB
Maghfirotun Nisa,XI TB 1,TB
May Fatul Raiyah,XI TB 1,TB
Meida Rosyida Azizah,XI TB 1,TB
Nensi Nopika Pratama,XI TB 1,TB
Nisa Febriani,XI TB 1,TB
Roikhana Nurrohmah,XI TB 1,TB
Sotya Amelia Donna,XI TB 1,TB
Sri Nurhayati,XI TB 1,TB
Suci Rahma Alviana,XI TB 1,TB
Tirani Rahyanti,XI TB 1,TB
Tista Munaroh,XI TB 1,TB
Ulfa Muazizah,XI TB 1,TB
Windy Agustin Nutufiani,XI TB 1,TB
Angga Rukmini,XI TB 2,TB
Arfina Yufana Saputri,XI TB 2,TB
Asma Shafira Aulia,XI TB 2,TB
Aulia Reviantika Sari,XI TB 2,TB
Ayuk Eka Setiawati,XI TB 2,TB
Deva Fransiska,XI TB 2,TB
Devi Diana Saputri,XI TB 2,TB
Diah Arum Pratiwi,XI TB 2,TB
Dian Astuti,XI TB 2,TB
Dita Desti Cahyaningtyas,XI TB 2,TB
Eka Ayu Risqinawanti,XI TB 2,TB
Elva Al Afwa,XI TB 2,TB
Ika Rahmayanti,XI TB 2,TB
Imelda Adinda Puspita Hadi,XI TB 2,TB
Intan Saputri,XI TB 2,TB
Klarita,XI TB 2,TB
Lusiana Rizki Andari,XI TB 2,TB
Mifta Ayu Anindita,XI TB 2,TB
Mustakvira Nurjannah,XI TB 2,TB
Nadia Setya Pratiwi,XI TB 2,TB
Puteri Barokah Panjaitan,XI TB 2,TB
Revi Dwi Handayani,XI TB 2,TB
Selvi Agustiana,XI TB 2,TB
Septina Kharisma Putri,XI TB 2,TB
Sherina Fedila Yanti,XI TB 2,TB
Silvia Maya Fitria,XI TB 2,TB
Veny Indriana Pramesti,XI TB 2,TB
Vivi Ida Yonata,XI TB 2,TB
Wiwit Seli Suryanti,XI TB 2,TB
Adinda Maharani Saputri,XI DKV 1,DKV
Ananda Diaz Waskito,XI DKV 1,DKV
Bambang Prasetia,XI DKV 1,DKV
Dhiva Roy Andika,XI DKV 1,DKV
Disa Wikasita,XI DKV 1,DKV
Ela Yangki Medika Zahra,XI DKV 1,DKV
Fadilla Gita Juliana,XI DKV 1,DKV
Fannia Dwi Cahyani,XI DKV 1,DKV
Ganes Widi Arimbi,XI DKV 1,DKV
Karima Salsabella Marcelda,XI DKV 1,DKV
Lutfi Dwi Laksana,XI DKV 1,DKV
Maysya Sahertian Sukatno,XI DKV 1,DKV
Meirina Maharani,XI DKV 1,DKV
Nadhira Lisa Ardiyanti,XI DKV 1,DKV
Riyan Dani Valentino,XI DKV 1,DKV
Rizky Maulana,XI DKV 1,DKV
Rona Tsaniyah,XI DKV 1,DKV
Roni Nur Arifin,XI DKV 1,DKV
Sindi Nurya Lutfiyah,XI DKV 1,DKV
Viky Yovan Nuha Karindra,XI DKV 1,DKV
Ardani Laila Puspitasari,XI DKV 2,DKV
Arendra Akmal Rizqi,XI DKV 2,DKV
Ariel Tridhi Firmansyah,XI DKV 2,DKV
Audi Aulia Insani,XI DKV 2,DKV
Danang Kurniawan,XI DKV 2,DKV
Dani Setiawan,XI DKV 2,DKV
Gabril Bastian,XI DKV 2,DKV
Gandhi Ega Hidayat,XI DKV 2,DKV
Indra Setiyo Utomo,XI DKV 2,DKV
Langgeng Dwi Janarko,XI DKV 2,DKV
Luh Sekar Kinasih,XI DKV 2,DKV
Nancy Mardina Fatawieke,XI DKV 2,DKV
Oka Olif Via,XI DKV 2,DKV
Rendi Tri Atmoko,XI DKV 2,DKV
Reyaoseph Nikoandrea,XI DKV 2,DKV
Rizko Relanta Kurniawan,XI DKV 2,DKV
Sefria Hasan Rofiqqi,XI DKV 2,DKV
Youke Prasatya,XI DKV 2,DKV
Dhamar Adha,XI ANM,ANM
Diky Nurrahman,XI ANM,ANM
Dimas Bowo Laksono,XI ANM,ANM
Dinda Ayu Paramitha,XI ANM,ANM
Diyo Prabowo,XI ANM,ANM
Dwi Aji Irawan,XI ANM,ANM
Faizal Amri Wicaksana,XI ANM,ANM
Jawi Mahal Husada,XI ANM,ANM
Mochammad Mikko Arbiansyah,XI ANM,ANM
Mohammad Adhi Prayoga,XI ANM,ANM
Ridwan Azis Saputra,XI ANM,ANM
Shavmaidzar Azam Avazani,XI ANM,ANM
Tiara Nasywa Nabila Choirunnissa,XI ANM,ANM
Yolanda Devinta Anjasmara,XI ANM,ANM
Yuan Muhammad Affandi,XI ANM,ANM
Dinda Nurul Aisyah,XI KKBT,KKBT
Eva Safi Saputri,XI KKBT,KKBT
Imel Rusiana,XI KKBT,KKBT
Meifany Distasary,XI KKBT,KKBT
Selvira Riyantika,XI KKBT,KKBT
Talitha Aristawati,XI KKBT,KKBT
Wahyu Aninditiya,XI KKBT,KKBT
Yesi Mega Andani,XI KKBT,KKBT
Ade Putra Pratama,XI KKKR,KKKR
Adi Prayoga,XI KKKR,KKKR
Aditya Anggoro Pratama,XI KKKR,KKKR
Bagas Prastyo,XI KKKR,KKKR
Bagus Utomo,XI KKKR,KKKR
Bambang Triyono,XI KKKR,KKKR
Cahyo Hadi Jiwibowo Mukti,XI KKKR,KKKR
Diaz Erlangga,XI KKKR,KKKR
Dicky Aldy Pratama,XI KKKR,KKKR
Evan Hadi Kusuma,XI KKKR,KKKR
Fajar Firman Syahroni,XI KKKR,KKKR
Indra Nur Cahya,XI KKKR,KKKR
Muhamad Nuril Anwar,XI KKKR,KKKR
Muhammad Taufiq Hidayah,XI KKKR,KKKR
Muhammad Zainuddin Ramdhani,XI KKKR,KKKR
Mustofa Restu Riyadi,XI KKKR,KKKR
Rifky Andy Prastyo,XI KKKR,KKKR
Rinto Setiawan,XI KKKR,KKKR
Satrio Mulia Akbar,XI KKKR,KKKR
Setia Erwanto,XI KKKR,KKKR
Slamet Ariyanto,XI KKKR,KKKR
Yoga Alifiyan Pratama,XI KKKR,KKKR
Muhammad Zacky,XI TKJ 1,
Abdi Bagus Purbo Prassiwi,XII ANM,ANM
Akbar Rahmadi Tama,XII ANM,ANM
Ali Nasikun,XII ANM,ANM
Anjelli Egitaria,XII ANM,ANM
Apin,XII ANM,ANM
Azril Arya Nugraha,XII ANM,ANM
Dewi Puspita Sari,XII ANM,ANM
Dicky Febrian Permadi,XII ANM,ANM
Dwi Saputra,XII ANM,ANM
Famara Anbar Firdavarista,XII ANM,ANM
Indah Rianingsih,XII ANM,ANM
Rio Dwi Priyanto,XII ANM,ANM
Septiana Indah Pratiwi,XII ANM,ANM
Shinta Apriliana,XII ANM,ANM
Surya Alam Firdaus,XII ANM,ANM
Vicenza Dea Widyazruci Haxzni Refinta,XII ANM,ANM
Adit Saputra Cahyana,XII DKV 1,DKV
Aditia Permana,XII DKV 2,DKV
Ahmad Iqbal Pratama,XII DKV 1,DKV
Aldian Tri Wibowo,XII DKV 2,DKV
Alfan Risaariski,XII DKV 1,DKV
Ananda Pandu Dzulfiqar,XII DKV 1,DKV
Angga Bayu Sandika,XII DKV 2,DKV
Aprilia Happy Yolanda,XII DKV 1,DKV
Aria Windinata,XII DKV 2,DKV
Ary Dwi Saputra,XII DKV 1,DKV
Candra Cahya Prana,XII DKV 2,DKV
Daviko Angga Aprilias,XII DKV 1,DKV
Desi Cahyaningsih,XII DKV 2,DKV
Dicho Yoga Ardhi Pratama,XII DKV 2,DKV
Dicva Kurniadi Kusuma,XII DKV 1,DKV
Dimas Wildan Saputra,XII DKV 1,DKV
Edgar Valda Ferdinand,XII DKV 2,DKV
Fadli Anan Setyawan,XII DKV 1,DKV
Feri Dwi Argo Prasetyo,XII DKV 2,DKV
Fia Susandi,XII DKV 1,DKV
Firjatullah Widyadhana,XII DKV 2,DKV
Hadwan Azhar Amin,XII DKV 1,DKV
Hafiz Wahyu Wicaksono,XII DKV 2,DKV
Harmelia Susian Hasanah,XII DKV 1,DKV
Haru Kukuh Prasetyo,XII DKV 1,DKV
Husnul Huda Primastur,XII DKV 2,DKV
Indira Siska Ananta,XII DKV 2,DKV
Khoirul Muttaqin,XII DKV 1,DKV
Kirana Firdausi,XII DKV 1,DKV
Mely Nilasari,XII DKV 2,DKV
Muhamad Zainurrohim,XII DKV 2,DKV
Nugroho Herwindo Restu,XII DKV 1,DKV
Priyo Rizky Santoso,XII DKV 2,DKV
Putri Afwa Afifah,XII DKV 1,DKV
Rendhy Winanda,XII DKV 1,DKV
Riyo Oktaviyanto,XII DKV 1,DKV
Rizal Putra Augusta,XII DKV 2,DKV
Sulis Dian Oktavianty,XII DKV 2,DKV
Thalya Agatha Putri,XII DKV 2,DKV
Wahyu Lifandri Bahtiar,XII DKV 1,DKV
Wihardimas Prasetyo,XII DKV 2,DKV
Zolla Avrin Rizqiansyah,XII DKV 1,DKV
Aditya Tri Hidayyah,XII DPIB 1,DPIB
Andika Wahyu Pratama,XII DPIB 1,DPIB
Arma Tunggal Ludira,XII DPIB 1,DPIB
Baharudin Ali,XII DPIB 1,DPIB
Dafa Dwi Rangga Apriansah,XII DPIB 1,DPIB
Elistian Putri Venanda,XII DPIB 1,DPIB
Ervan Aris Fauzi,XII DPIB 1,DPIB
Galih Prayogo,XII DPIB 1,DPIB
Hikmah Safta Aji,XII DPIB 1,DPIB
Luthfan Zihni Ardyadi,XII DPIB 1,DPIB
Maharani Megantari Safitri,XII DPIB 1,DPIB
Mohammad Rafi'Ud Darojad,XII DPIB 1,DPIB
Muhamad Rizsky Kurniawan Saputra,XII DPIB 1,DPIB
Muhammad Ihtiar,XII DPIB 1,DPIB
Muhammad Jawahirul Maqnun,XII DPIB 1,DPIB
Muhammad Ulil Abror,XII DPIB 1,DPIB
Nurmala Kusuma Dewi,XII DPIB 1,DPIB
Rafend Pradhipa Hafidz Prianggi,XII DPIB 1,DPIB
Ricko Febriyanto,XII DPIB 1,DPIB
Robin Ananda,XII DPIB 1,DPIB
Syafi' Angga Pratama,XII DPIB 1,DPIB
Widi Dwi Prasetyo,XII DPIB 1,DPIB
Yayang Bagas Saputra,XII DPIB 1,DPIB
Aldy Eka Syahputra Ramadhani,XII DPIB 2,DPIB
Andya Alif Priswantoro,XII DPIB 2,DPIB
Arjun Edo Satrio,XII DPIB 2,DPIB
Bagus Ghozwull Alfiansyah,XII DPIB 2,DPIB
Bintang Adi Nugroho,XII DPIB 2,DPIB
Daniel Affandy Ferdian,XII DPIB 2,DPIB
Firga Nensla Arnolesta,XII DPIB 2,DPIB
Giri Sulung Prihatama,XII DPIB 2,DPIB
Jony Galih Pranata,XII DPIB 2,DPIB
Mohammad Khoirudin,XII DPIB 2,DPIB
Muhamad Ihza Alfarizi,XII DPIB 2,DPIB
Muhammad Barly Ilhamsyah,XII DPIB 2,DPIB
Muhammad Irsyad Akmaluddin,XII DPIB 2,DPIB
Muhammad Munirul Ihsan,XII DPIB 2,DPIB
Muhammad Nofal Akbar,XII DPIB 2,DPIB
Muthiah,XII DPIB 2,DPIB
Rahmawati,XII DPIB 2,DPIB
Raka Jaguar Eka Sakti,XII DPIB 2,DPIB
Rizqi Dwi Ananda,XII DPIB 2,DPIB
Rofi Ahmat Putra Pangestu,XII DPIB 2,DPIB
Vito Hendriawan,XII DPIB 2,DPIB
Wisnu Hadi Wicaksono,XII DPIB 2,DPIB
Zenky Pratama Ramandika,XII DPIB 2,DPIB
Adinda Puspitasari,XII KKBT,KKBT
Anggun Kurnia Dila Lestari,XII KKBT,KKBT
Anis Kurlila,XII KKBT,KKBT
Dea Maylani Fitri,XII KKBT,KKBT
Delfi Rohayani,XII KKBT,KKBT
Dewi Nini Mashito,XII KKBT,KKBT
Eka Willy Saputri,XII KKBT,KKBT
Ela Aulia,XII KKBT,KKBT
Erlina Mayasari,XII KKBT,KKBT
Haning Pradiasari,XII KKBT,KKBT
Kharisya Aulia,XI KKBT,KKBT
Lusi Dwi Lestari,XII KKBT,KKBT
Norma Widya Rahmawati,XII KKBT,KKBT
Putri Ananda Susanti,XII KKBT,KKBT
Quriel Zelika Ototis,XII KKBT,KKBT
Sela Rahmania Putri,XII KKBT,KKBT
Widi Astutik,XII KKBT,KKBT
Wingki Fitriani Pratiwi,XII KKBT,KKBT
Wiwik Widiawati,XII KKBT,KKBT
Yesinta Dwi Utami,XII KKBT,KKBT
Adek Setya Purnawan,XII KKKR,KKKR
Afreza Prawiga Widiatama,XII KKKR,KKKR
Afryliano Arshandy,XII KKKR,KKKR
Awi Pratama,XII KKKR,KKKR
Azhar Yusuf Khariza,XII KKKR,KKKR
Bayu Aji Prasetya,XII KKKR,KKKR
Bayu Putra Pratama,XII KKKR,KKKR
Choirur Rofichin,XII KKKR,KKKR
Dimas Febrian Saputra,XII KKKR,KKKR
Dimas Ilham Wicaksono,XII KKKR,KKKR
Doni Eka Pristiawan,XII KKKR,KKKR
Falendrian Atma Saputra,XII KKKR,KKKR
Firman Ardiansyah,XII KKKR,KKKR
Mochammad Hadi Setiawan,XII KKKR,KKKR
Moh.Azka Mufatihin,XII KKKR,KKKR
Muhammad Alvian,XII KKKR,KKKR
Muhammad Aziz Cahyo Nugroho,XII KKKR,KKKR
Muhammad Nur Hidayat,XII KKKR,KKKR
Nanda Prastyo,XII KKKR,KKKR
Oki Sanjaya Putra,XII KKKR,KKKR
Pebi Fernando,XII KKKR,KKKR
R. Muhammad Reza Kusuma W,XII KKKR,KKKR
Redyan Tri Wibowo,XII KKKR,KKKR
Riki Iful Saputra,XII KKKR,KKKR
Rio Ardianto,XII KKKR,KKKR
Rio Rinaldi Ardiansyah,XII KKKR,KKKR
Riski Ardiyansyah,XII KKKR,KKKR
Riyan Sudasno,XII KKKR,KKKR
Rizki Andia Pratama,XII KKKR,KKKR
Rudi Prasetyo,XII KKKR,KKKR
Saddam Abidin,XII KKKR,KKKR
Satria Putra Bahari,XI KKKR,KKKR
Taufik Azis,XII KKKR,KKKR
Valent Wisnu Bathara,XII KKKR,KKKR
Ahmad Nurul Fahmi,XII MM 1,MM
Aklima Putri Izati,XII MM 1,MM
Aldiansyah Muhammad Zulfikar,XII MM 1,MM
Aprilia Relita Prima,XII MM 1,MM
Ardyan Wiraka,XII MM 1,MM
Arya Danilo Viga,XII MM 1,MM
Bibing Advandiko Saauqy,XII MM 1,MM
Callvin Haidiri Rahmansyah Soetiya,XII MM 1,MM
Dandi Damara,XII MM 1,MM
Dhany Eka Anggriawan,XII MM 1,MM
Dina Vila Trisnawati,XII MM 1,MM
Duwi Rahmawati,XII MM 1,MM
Dwi Candra Setiawan,XII MM 1,MM
Firman Ashr Rozaqullah,XII MM 1,MM
Hafizh Trisna Indarto,XII MM 1,MM
Ilham Bagas Saputro,XII MM 1,MM
Mellina Feby Setiyawan,XII MM 1,MM
Muhammad Brilian Aura Kencana,XII MM 1,MM
Muhammad Ilham Ajen Prakoso,XII MM 1,MM
Novi Amanda Putri,XII MM 1,MM
Pamungkas Bayu Setiawan,XII MM 1,MM
Pramudya Wardani Putra,XII MM 1,MM
Rafli Khairulloh Juhri,XII MM 1,MM
Rahmad Leo Samudra,XII MM 1,MM
Regina Rizky Amalia Putri,XII MM 1,MM
Rendy Dwi Guntoro,XII MM 1,MM
Rizaldi Zakaria Fajrin,XII MM 1,MM
Safitri,XII MM 1,MM
Syahrindra Andreva Juliantino,XII MM 1,MM
Ugi Pramahardika,XII MM 1,MM
Vara Aurel Rania,XII MM 1,MM
Aldi Prastiawan,XII MM 2,MM
Alfan Prasetio,XII MM 2,MM
Anisa Agustina Cahyaningrum,XII MM 2,MM
Arvian Rivky Al Muhtharom,XII MM 2,MM
Aurellia Cahyarani,XII MM 2,MM
Baghas Aprian Diadon,XII MM 2,MM
Bintang Jati Pamungkas,XII MM 2,MM
Candra Winata,XII MM 2,MM
Depedro Delio Rossi,XII MM 2,MM
Dimas Rizaldy,XII MM 2,MM
Dini Aprilyawati Soraya,XII MM 2,MM
Elza Afta Permana,XII MM 2,MM
Ervina Oktaviana,XII MM 2,MM
Ferdinand Lindhu Pamungkas,XII MM 2,MM
Gigih Nur Hidayat,XII MM 2,MM
Heru Nugroho Suslistyo,XII MM 2,MM
Muhammad Alfan Alvian,XII MM 2,MM
Muhammad Dinar Aditya,XII MM 2,MM
Muhammad Luqman Febrian Akbar,XII MM 2,MM
Najwa Regita Dwi Cahyani,XII MM 2,MM
Pandu Aswadana,XII MM 2,MM
Rafiza Yogi Ananta,XII MM 2,MM
Rahma A'Nur Nassya Putri,XII MM 2,MM
Rahma Panji Satria Aji,XII MM 2,MM
Ramanda Alviana Zair,XII MM 2,MM
Ricat Bayu Anggoro,XII MM 2,MM
Risma Kusuma Wati,XII MM 2,MM
Septrian Kurniawan Prasetiya,XII MM 2,MM
Silvia Rahayu Afifah,XII MM 2,MM
Tori Sukma Aji,XII MM 2,MM
Wahyu Candra Utama,XII MM 2,MM
Yunanda Septi Avidza,XII MM 2,MM
Adhi Aji Pramono,XII RPL,RPL
Ahmad Risky Agustian,XII RPL,RPL
Alfian Maulana,XII RPL,RPL
Alvin Nanda Permana Citra,XII RPL,RPL
Arlisma Nur Aliffah,XII RPL,RPL
Danang Ari Fajar,XII RPL,RPL
Dyva Rahmat Hidayat Tulloh,XII RPL,RPL
Efzaldi Chito Mahatva Jaya,XII RPL,RPL
Fendy Nur Naim,XII RPL,RPL
Firza Findia Jiven,XII RPL,RPL
Fu'Ad Najiib,XII RPL,RPL
Harits Joy Wirawan,XII RPL,RPL
Muhamad Aji Pinaringan,XII RPL,RPL
Muhammad Syauqi Izzet Sakovic,XII RPL,RPL
Naufal Zaki Almazi,XII RPL,RPL
Nelly Nur Aprelia,XII RPL,RPL
Nisrina Ninis Monika,XII RPL,RPL
Panji Ketawang,XII RPL,RPL
Prima Aditya Wicaksono,XII RPL,RPL
Rony Susanto,XII RPL,RPL
Salsabila Dita Rahmawati,XII RPL,RPL
Wahyu Bima Saputra,XII RPL,RPL
Ade Dinar Tri Wijayanti,XII TB 1,TB
Anggita Rahma Safira,XII TB 1,TB
Annastya Selvi Kusuma Fitriani,XII TB 1,TB
Arviana Urbatud Devriyanti,XII TB 1,TB
Devi Octavia,XII TB 1,TB
Diyah Arviana Suri,XII TB 1,TB
Eki Listyana Saputri,XII TB 1,TB
Fadia Putri Purnamasari,XII TB 1,TB
Felis Yuanita,XII TB 1,TB
Feri Setiawan,XII TB 1,TB
Ghea Islamathasya Eminda,XII TB 1,TB
Handini Kusuma Wardani,XII TB 1,TB
Indika Dwi Cahyaningrum,XII TB 1,TB
Karomah Laila Wulandari,XII TB 1,TB
Lingliana Eka Saputri,XII TB 1,TB
Niken Wulandari,XII TB 1,TB
Nur Aida Astuti,XII TB 1,TB
Nurdiana,XII TB 1,TB
Nurul Ana Safitri,XII TB 1,TB
Puspita Cahyarani,XII TB 1,TB
Putri Sukma Ayuni,XII TB 1,TB
Rahma Nurtri Septiani,XII TB 1,TB
Ravinda Rifki Yuliana,XII TB 1,TB
Rizka Apretika Sari,XII TB 1,TB
Selvi Nurtavina,XII TB 1,TB
Septya Anggi Sucivirastri,XII TB 1,TB
Sila Utami,XII TB 1,TB
Tri Winarni,XII TB 1,TB
Tyas Tri Lestari,XII TB 1,TB
Vina Rulianti,XII TB 1,TB
Weni,XII TB 1,TB
Alfi Mudrikah,XII TB 2,TB
Ani Putri Romadhoni,XII TB 2,TB
Arina Sabila El Haq,XII TB 2,TB
As Syifa Dian Ramadhani,XII TB 2,TB
Cut Natasya,XII TB 2,TB
Dewi Nuryani,XII TB 2,TB
Dwi Pipit Ambarsari,XII TB 2,TB
Erika Aurel Purwara,XII TB 2,TB
Febi Permatasari,XII TB 2,TB
Fina Fadhila Ningrum,XII TB 2,TB
Gita Ainun Rokhimah,XII TB 2,TB
Indah Pajar Wati,XII TB 2,TB
Intan Novita Rahmadani,XII TB 2,TB
Latifatul Mukharomah,XII TB 2,TB
Miftakhul Ullum,XII TB 2,TB
Nanda Pratiwi Wijayana,XII TB 2,TB
Novi Asnawati,XII TB 2,TB
Nurma Azzahro,XII TB 2,TB
Pepi Kumala Sari,XII TB 2,TB
Putri Lestari,XII TB 2,TB
Qoriatuz Zahro,XII TB 2,TB
Rani Okta Saputri,XII TB 2,TB
Renanta Fidellia Amandha Nadhea Citra,XII TB 2,TB
Safira Febriana,XII TB 2,TB
Septi Asari,XII TB 2,TB
Sheila Ramadhani,XII TB 2,TB
Tri Cia Mayla Al-Khusna,XII TB 2,TB
Tri Zanna Larasati,XII TB 2,TB
Vadila Suci Mahaningrum,XII TB 2,TB
Wakhidah Setyaningsih,XII TB 2,TB
Agtwo Mardika Guslin,XII TKJ 1,TKJ
Akbar Sudrajat,XII TKJ 1,TKJ
Aldy Febry Wahyu Pratama,XII TKJ 1,TKJ
Alvin Tri Ramadhani,XII TKJ 1,TKJ
Andini Alifa Febrianti,XII TKJ 1,TKJ
Andri Lindu Wicaksono,XII TKJ 1,TKJ
Bima Aura Auliya,XII TKJ 1,TKJ
David,XII TKJ 1,TKJ
Della Puspita,XII TKJ 1,TKJ
Fakhriy Brilliant Ar Rosyid,XII TKJ 1,TKJ
Gading Sahda Pratamansyah,XII TKJ 1,TKJ
Hanif Nur Awwaludin,XII TKJ 1,TKJ
Himawan Pramudya,XII TKJ 1,TKJ
Iqbal Bariq Akbar,XII TKJ 1,TKJ
Keysha Diva Saharani,XII TKJ 1,TKJ
Krishna Sosro Murti,XII TKJ 1,TKJ
Mahardika Indra Lesmana,XII TKJ 1,TKJ
Melynda Eka Sagitadewi,XII TKJ 1,TKJ
Muhammad Alfian Firdaus,XII TKJ 1,TKJ
Muhammad Yoga Pratama,XII TKJ 1,TKJ
Nofa Ferdiansyah,XII TKJ 1,TKJ
Pandu Tri Adiaksa,XII TKJ 1,TKJ
Putri Dwi Mardiyanti,XII TKJ 1,TKJ
Raehan Andeswari Septian,XII TKJ 1,TKJ
Raflin Rindiansyah,XII TKJ 1,TKJ
Rhaditya Risky Adi Mulia,XII TKJ 1,TKJ
Ryan Finaldo,XII TKJ 1,TKJ
Selvia Windy Rahmawati,XII TKJ 1,TKJ
Tsaqofa Alghani Muthahhari,XII TKJ 1,TKJ
Wahyu Oktaf Bagas Prabowo,XII TKJ 1,TKJ
Ajik Saputra,XII TKJ 2,TKJ
Albian Bhakti Prayogo,XII TKJ 2,TKJ
Alfahmi Aditya Kendri,XII TKJ 2,TKJ
Anandito Gustyanda Guruh Saputro,XII TKJ 2,TKJ
Aryan Fajar Saputra,XII TKJ 2,TKJ
Beti Loriya Putri,XII TKJ 2,TKJ
Bintang Laksana Agung,XII TKJ 2,TKJ
Devi Falentina,XII TKJ 2,TKJ
Faisal Setya Aji Pratama,XII TKJ 2,TKJ
Farda Ersya Fangariq,XII TKJ 2,TKJ
Ghiza Septian Ady Prasetya,XII TKJ 2,TKJ
Himawan Bayu Aji,XII TKJ 2,TKJ
Joshua Michael Yudianto,XII TKJ 2,TKJ
Klaratika Noviana,XII TKJ 2,TKJ
Krisna Aji Panjalu,XII TKJ 2,TKJ
Mohammad Fasya Jamil,XII TKJ 2,TKJ
Muhammad Fahrizal Syah,XII TKJ 2,TKJ
Muhammad Isro' Septiawan,XII TKJ 2,TKJ
Muhammad Yusuf Choiruddin,XII TKJ 2,TKJ
Nova Anugrah Ramadhani,XII TKJ 2,TKJ
Novia Sania Turrofingiah,XII TKJ 2,TKJ
Pradibta Risma Abiantoro,XII TKJ 2,TKJ
Rafidto Erzha Adevano,XII TKJ 2,TKJ
Revi Nurita Cahyani,XII TKJ 2,TKJ
Risky Taqwa Maulana Efendi,XII TKJ 2,TKJ
Sandy Aprilian Budiansyah,XII TKJ 2,TKJ
Siti Naning Sofriani Khasanah,XII TKJ 2,TKJ
Ulin Nuha,XII TKJ 2,TKJ
Welly Irzhi Putra Purnama,XII TKJ 2,TKJ
Akbar Satria Wicaksana,XII TKJ 3,TKJ
Aldi Nur Huda,XII TKJ 3,TKJ
Alip Nur Kusaini,XII TKJ 3,TKJ
Andika Dermawan Saputra,XII TKJ 3,TKJ
Angga Ardi Putra,XII TKJ 3,TKJ
Calista Ratna Kartika,XII TKJ 3,TKJ
Daniel Fareza,XII TKJ 3,TKJ
Elga Vigyenta Azzahra,XII TKJ 3,TKJ
Fajar Satria Sebastian,XII TKJ 3,TKJ
Fendika Edo Ferdinata,XII TKJ 3,TKJ
Gilang Lebda Yoga,XII TKJ 3,TKJ
Hermawan Juliyanto,XII TKJ 3,TKJ
Imron Rosyid Bahrori,XII TKJ 3,TKJ
Maftuh Ahnan,XII TKJ 3,TKJ
Mellya Wulandari,XII TKJ 3,TKJ
Mila Oktafiani,XII TKJ 3,TKJ
Muhammad Albert,XII TKJ 3,TKJ
Muhammad Farhat Nugroho,XII TKJ 3,TKJ
Muhammad Muzakiy Azhari,XII TKJ 3,TKJ
Nico Hermawan,XII TKJ 3,TKJ
Nova Ardi Riyanto,XII TKJ 3,TKJ
Putra Hadi Kusuma,XII TKJ 3,TKJ
Rafli Alim Putra Ardhani,XII TKJ 3,TKJ
Rama Adi Satya,XII TKJ 3,TKJ
Ravi Dwi Mailano,XII TKJ 3,TKJ
Rima Solikah,XII TKJ 3,TKJ
Rizal Fachri Choiruliza Almahdi,XII TKJ 3,TKJ
Varda Diva Arika,XII TKJ 3,TKJ
Wahyu Pujiati,XII TKJ 3,TKJ
Yoga Febriansyah,XII TKJ 3,TKJ
Yuliana Dewi,XII TKJ 3,TKJ
Adhelya Martha Sylfara,XII TKKR,TKKR
Awalina Angger Oktavia Ningrum,XII TKKR,TKKR
Bayu Andriano,XII TKKR,TKKR
Bunga Astria Valentina,XII TKKR,TKKR
Danes Identia,XII TKKR,TKKR
Devi Vinta Ardani,XII TKKR,TKKR
Ega Putri Setyawati,XII TKKR,TKKR
Fadhia Amelia,XII TKKR,TKKR
Herdiana Dwi Rahayu,XII TKKR,TKKR
Icha Andiarni Aprilia,XII TKKR,TKKR
Kanaa,XII TKKR,TKKR
Lutvi Etika Sari,XII TKKR,TKKR
Maeva Shalva Destama,XII TKKR,TKKR
Maghdalena Eva Ramadhani,XII TKKR,TKKR
Meisy Saputri,XII TKKR,TKKR
Nafa Alvi Wawa Kharisma,XII TKKR,TKKR
Nikkahalma Raharja,XII TKKR,TKKR
Ofi Spiyana Safitri,XII TKKR,TKKR
Ratna Pefi Anasari,XII TKKR,TKKR
Reva Saputri,XII TKKR,TKKR
Safira Avliasari,XII TKKR,TKKR
Shella Novianes Syahfitri Hani,XII TKKR,TKKR
Sintia Sari,XII TKKR,TKKR
Vio Adhelia Hascaryo,XII TKKR,TKKR
Yolanda Puspita Dewi,XII TKKR,TKKR
Ade Bayu Prastyo,XII UPW,UPW
Afrilia Alvina Anggraeni,XII UPW,UPW
Anggi Pangestu,XII UPW,UPW
Anisa Gili Putri,XII UPW,UPW
Anita Septa Aryani,XII UPW,UPW
Arnik Aprilia,XII UPW,UPW
Arya Kurnia Candra,XII UPW,UPW
Ayu Sukma Ningsih,XII UPW,UPW
Danang Tito Sugiarto,XII UPW,UPW
Davina Aulia Saputri,XII UPW,UPW
Denata Aditya Yofandi,XII UPW,UPW
Desinta Rahma Amarulloh,XII UPW,UPW
Dhealova Cahaya Riza,XII UPW,UPW
Dhimas Bagus Prayoga,XII UPW,UPW
Feby Syalsa Maharani,XII UPW,UPW
Jelita Amanda Febrianti,XII UPW,UPW
Kalfika Yuli Sesarani,XII UPW,UPW
Merizka Dita Permata,XII UPW,UPW
Mita Wulanndani,XII UPW,UPW
Mivtaqul Arif Musyyafa,XII UPW,UPW
Mohammad Revansa Rediansyah,XII UPW,UPW
Nabilla Rahmaning Muftianingrum,XII UPW,UPW
Nensy Trisna Putri,XII UPW,UPW
Putri Damiya Sari,XII UPW,UPW
Reno Herlambang,XII UPW,UPW
Rintan Dirawati,XII UPW,UPW
Roe Norissan,XII UPW,UPW
Taufik Hidayat,XII UPW,UPW
Tegar Dhimas Febrian,XII UPW,UPW
Yessi Natasari,XII UPW,UPW
Akbar Efendi Saputra,XII KKKR,KKKR
Claria Privana Ratna Wati,XI RPL,RPL
Puput Monica Azira,XI TKKR,TKKR
Nur Shabila Puspitasari,XII MM 1,MM
Zahara Harun Siswadi,XII TKJ 3,TKJ
Januar Randi Firmansyah,XII TKJ 2,TKJ
Abidah,X DPIB,DPIB
Ariel Ega Raditya Pratama,X DPIB,DPIB
Arya Pamungkas,X DPIB,DPIB
Daffa Aufa Zain,X DPIB,DPIB
Davina Septi Maharani,X DPIB,DPIB
Fahrezaky Sevanandra Srisetiawan,X DPIB,DPIB
Fauzan Fatwa Ghani,X DPIB,DPIB
Fresicha Nanda Mustika Putri,X DPIB,DPIB
Indrafata Firmansyah,X DPIB,DPIB
Moch. Nur Adi Saputra,X DPIB,DPIB
Mohammad Arizatul Fatta,X DPIB,DPIB
Muhammad Faza Wildani,X DPIB,DPIB
Narendra Ardianto,X DPIB,DPIB
Nida Agha Hanum At Taufiqy,X DPIB,DPIB
Rendy Dwi Firmansyah,X DPIB,DPIB
Rendy Dwi Prastiyo,X DPIB,DPIB
Rifki Assahid Asfa,X DPIB,DPIB
Risa Pamungkasari,X DPIB,DPIB
Satria Widhiya Putra,X DPIB,DPIB
Satria Wing Abriandi,X DPIB,DPIB
Tegar Bagus Yudhoyono,X DPIB,DPIB
Tisa Alia Masrofa,X DPIB,DPIB
Tita Setiawati,X DPIB,DPIB
Wulan Indah Safitri,X DPIB,DPIB
Zafira Tiara Putri,X DPIB,DPIB
Zani Ahmad Fadlilah,X DPIB,DPIB
Alvin Bayuputra,X RPL,RPL
Amanda Yonnie Citagami,X RPL,RPL
Ariel Pradigta Alvin,X RPL,RPL
Dzaky Ramadhani,X RPL,RPL
Emy Yuan Damara,X RPL,RPL
Febnikko Setiaji,X RPL,RPL
Hening Daffa Farrelas,X RPL,RPL
Herlambang Aryo Wicaksono,X RPL,RPL
Jovanda Widy Pramudya,X RPL,RPL
Neo Alfian Maulana,X RPL,RPL
Nur Falah Ramadan,X RPL,RPL
Prasyaditya Indra Pradana,X RPL,RPL
Rahardian Hutama Syamsuri,X RPL,RPL
Rino Bimara Hantoro,X RPL,RPL
Septio Adi,X RPL,RPL
Singgih Dwi Budiarto,X RPL,RPL
Surya Farrelino Rudyansyah,X RPL,RPL
Aditya Yoga Pratama,X TKJ 1,TKJ
Adnan Zakarya,X TKJ 1,TKJ
Alfredo Dechalvin,X TKJ 1,TKJ
Dania Rahma Indrawati,X TKJ 1,TKJ
Defi Irnawati,X TKJ 1,TKJ
Devano Aliffian Pangestu,X TKJ 1,TKJ
Dian Ferdianto,X TKJ 1,TKJ
Dimas Fikri Ramadhan,X TKJ 1,TKJ
Dino Aji Nugroho,X TKJ 1,TKJ
Erlangga Wibowo,X TKJ 1,TKJ
Ivan Dwi Dhimasari,X TKJ 1,TKJ
Linda Dwi Agustin,X TKJ 1,TKJ
Moh.Fikri Ardiansyah,X TKJ 1,TKJ
Mohamat Bayu Irvandi,X TKJ 1,TKJ
Muhamad Fadhil Hersiansyah,X TKJ 1,TKJ
Nur Wahyu Rizky Evendy,X TKJ 1,TKJ
Nurvian Friza Nugoroho,X TKJ 1,TKJ
Raffi Putra Yulista,X TKJ 1,TKJ
Rafisyam Zadha Hidayat,X TKJ 1,TKJ
Rama Muhammad Firdaus,X TKJ 1,TKJ
Ramzan Husein Wirawan,X TKJ 1,TKJ
Rani Pradiyanti,X TKJ 1,TKJ
Reno Prasetyo,X TKJ 1,TKJ
Riski Putri Aprilia,X TKJ 1,TKJ
Ryan Candra Krisdiantoro,X TKJ 1,TKJ
Vika Aprilia,X TKJ 1,TKJ
Wendri Safriadi,X TKJ 1,TKJ
Zada Waly Fadilla,X TKJ 1,TKJ
Zahra Alifya Gadiska,X TKJ 1,TKJ
Aghfar Yashif Maulana,X TKJ 2,TKJ
Agil Tri Wahyu Saputro,X TKJ 2,TKJ
Alvisa Aulia Nurjanah,X TKJ 2,TKJ
Andika Eko Kurniawan,X TKJ 2,TKJ
Clarra Meirisa Zumantica,X TKJ 2,TKJ
Davit Pamungkas,X TKJ 2,TKJ
Delfin Ariana Ramadhani,X TKJ 2,TKJ
Deni Sepdiansyah,X TKJ 2,TKJ
Dhimas Alfredo Purwasadina,X TKJ 2,TKJ
Dhimas Bayu Siwi,X TKJ 2,TKJ
Evan Nabil Helga Pramana,X TKJ 2,TKJ
Figo Agig Pratama,X TKJ 2,TKJ
Firman Hidayat,X TKJ 2,TKJ
Irsyada Faiz Aswangga,X TKJ 2,TKJ
Julita Patmasari,X TKJ 2,TKJ
Makhfud Riyan Nur Hidayat,X TKJ 2,TKJ
Muhammad Afreza,X TKJ 2,TKJ
Muhammad Sulthon Arif Fajri,X TKJ 2,TKJ
Mustakim Ramli,X TKJ 2,TKJ
Mutiara Cintami,X TKJ 2,TKJ
Rahmad Nurdiantoro,X TKJ 2,TKJ
Reza Nanda Prasetya,X TKJ 2,TKJ
Rieke Geby Setyarin,X TKJ 2,TKJ
Vitho Apriansah,X TKJ 2,TKJ
Wahyu Ari Prabowo,X TKJ 2,TKJ
Weka Nayottama Zayyan,X TKJ 2,TKJ
Yoga Ardana Putra,X TKJ 2,TKJ
Yoga Surya Sanjaya,X TKJ 2,TKJ
Yudha Praditya Sabara,X TKJ 2,TKJ
Adhitya Fransisco,X TKJ 3,TKJ
Alfianda Nur Nabila,X TKJ 3,TKJ
Alief Fathurahman Syahputra,X TKJ 3,TKJ
Alief Ramadhansyah,X TKJ 3,TKJ
Arung Rangga Yudha,X TKJ 3,TKJ
Azhar Saiful Najib,X TKJ 3,TKJ
Bagus Kurnia Cahya Mukti,X TKJ 3,TKJ
Brian Alfredo Aditha Putra,X TKJ 3,TKJ
Davin Handika,X TKJ 3,TKJ
Dheny Yudha Pratama,X TKJ 3,TKJ
Dinda Denistiyana,X TKJ 3,TKJ
Eka Ferianto,X TKJ 3,TKJ
Fajar Ali Herwanto,X TKJ 3,TKJ
Fajar Ramadani,X TKJ 3,TKJ
Gigih Kusuma Pratama,X TKJ 3,TKJ
Gischa Ayuning Tyas,X TKJ 3,TKJ
Ilham Permana Putra,X TKJ 3,TKJ
Khoirul Safi'I,X TKJ 3,TKJ
Muhammad Avis Virnanda,X TKJ 3,TKJ
Muhammad Gilang Ramadhani,X TKJ 3,TKJ
Mukhamad Riski Stia Pratama,X TKJ 3,TKJ
Nur Rokhim,X TKJ 3,TKJ
Rayhan Esa Yanuar,X TKJ 3,TKJ
Riko Istiawan,X TKJ 3,TKJ
Salsabila Radinka Auryn,X TKJ 3,TKJ
Suna Ambarwati,X TKJ 3,TKJ
Veby Sabetha Alentiana Bella,X TKJ 3,TKJ
Viona Salma Allya,X TKJ 3,TKJ
Yofan Nur Widyatama,X TKJ 3,TKJ
Adam Radyatama,X MM 1,MM
Alfa Fictor Maltiano,X MM 1,MM
Andika Tri Pamungkas,X MM 1,MM
Andrian Faiz,X MM 1,MM
Ari Wibisono,X MM 1,MM
Cahya Endraseta,X MM 1,MM
Chindy Intan Pratiwi,X MM 1,MM
Eko Wahyu Febrian Putra,X MM 1,MM
Farhan Nazzun,X MM 1,MM
Fauzidane Rifky Pangestu,X MM 1,MM
Ibanez Syahru Romansyah,X MM 1,MM
Iftita Dinar Massayu,X MM 1,MM
Ilyas Dhidan Nugroho,X MM 1,MM
Muhamad Nur Ilham,X MM 1,MM
Muhammad Diwan Fauzi,X MM 3,MM
Muhammad Nabil Ariamitra,X MM 1,MM
Nazira Esteli Azzahra,X MM 1,MM
Radika Putra Pratama,X MM 1,MM
Risa Zainul Mukolib,X MM 1,MM
Safa'At Dwi Satria,X MM 1,MM
Syuja Khansa Huwaida,X MM 1,MM
Tiara Romadhona,X MM 1,MM
Wantech Arofiq Huda Firdausyi,X MM 1,MM
Wiky Stiyaningsih,X MM 1,MM
Yohendris Putra Dimas Sanjaya,X MM 1,MM
Zagar Dwi Sanova Nurbaskara,X MM 1,MM
Adinda Ayu Pramayshella,X MM 2,MM
Agus Dwi Suryanta,X MM 2,MM
Alfi Floranesha Mayasta,X MM 2,MM
Anita Lusiani,X MM 2,MM
Arjuna Setiawan,X MM 2,MM
Atthoriq Firdaus Adjias Vino,X MM 2,MM
Damar Gandhi Pangestu,X MM 2,MM
Dea Rahma Ramadhani,X MM 2,MM
Diffa Nur'Aini,X MM 2,MM
Edi Winarto,X MM 2,MM
Elsa Berlian,X MM 2,MM
Enjela Tri Priandini,X MM 2,MM
Fadhil Maulana Diva,X MM 2,MM
Fadli Dwi Badhilah,X MM 2,MM
Frizzy Rindra Daniansyah,X MM 2,MM
Hemi Dwi Prasetyo,X MM 2,MM
Herliana Inne Febrianty,X MM 2,MM
Karina Agnes Pratika,X MM 2,MM
Muhammad Fais Ramadhan,X MM 2,MM
Pratama Afri Pra Setiawan,X MM 2,MM
Rendi Kurniawan,X MM 2,MM
Rini Setiyawati,X MM 2,MM
Rita Widhiastuti,X MM 2,MM
Wildan Naja Azma Azkiya,X MM 2,MM
Zakia Sonya Zuraeda,X MM 2,MM
Adita Juliani,X MM 3,MM
Al Zidan Paqita Wijaya,X MM 3,MM
Andika Ardiansyah,X MM 3,MM
Ardhiaz Purna Sanjaya,X MM 3,MM
Arfandi Joko Suprayekno,X MM 3,MM
Bagus Sandy Permana,X MM 3,MM
Dicky Ferdiansyah,X MM 3,MM
Didit Ikwan Pangestu,X MM 3,MM
Dimas Adi Pangestu,X MM 3,MM
Dimas Saputra,X MM 3,MM
Gusti Satrio,X MM 3,MM
Hafizd Ihza Nurrobbi,X MM 3,MM
Ighfarrizki,X MM 3,MM
Kaneisha Kamalya Putri,X MM 3,MM
Kiki Dwi Alfiansyah,X MM 3,MM
Muhammad Ridwan Mahendra Putra,X MM 3,MM
Nayla Deswita Aulia Rahma,X MM 2,MM
Nindya Mareta Saputri,X MM 3,MM
Oktafia Enzelika Putri,X MM 3,MM
Refita Fi Rahmadhani,X MM 3,MM
Rendyka Putra Ramadhan,X MM 3,MM
Revalina Pevianty,X MM 3,MM
Rivanda Bayhaqi,X MM 3,MM
Trihatmoko Yudosaputro,X MM 3,MM
Uyun Aqila Bima Antarez,X MM 3,MM
Wildan Zakka Tama Mashuri,X MM 3,MM
Alysia Destiar Rahmi,X UPW,UPW
Ashifa Berliana,X UPW,UPW
Aulia Lutfia Zahra,X UPW,UPW
Bagas Siddiq Waluya,X UPW,UPW
Dana Andriawan,X UPW,UPW
Dennis Bagus Prasetyo,X UPW,UPW
Desi Ariani Saputri,X UPW,UPW
Dhania Berliyan Putri Maharany,X UPW,UPW
Dimas Pratama Ramadiansyah L,X UPW,UPW
Dino Adi Pratama,X UPW,UPW
Dwi Amanda Aprilia,X UPW,UPW
Dwi Aprilia Ariastutik,X UPW,UPW
Eko Prasetiyo,X UPW,UPW
Endah Pratama Iswahyuningsih,X UPW,UPW
Fara Novita,X UPW,UPW
Fathyamanda Enelize Afra,X UPW,UPW
Leisha Ferdina Putri Wardani,X UPW,UPW
Mairdad Nur Lucky Syahputra,X UPW,UPW
Mey Yosi Infanthoilin,X UPW,UPW
Nadya Betris Safira,X UPW,UPW
Nayara Nadhira Putri,X UPW,UPW
Nikmatul Mutamima,X UPW,UPW
Radinka Kahlaan,X UPW,UPW
Rhonam Ferbiansa,X UPW,UPW
Rike Tri Utami,X UPW,UPW
Silviya Gita Novian Zahra,X UPW,UPW
Tanasya Daylaila,X UPW,UPW
Yuli Surfitasari,X UPW,UPW
Yunita Dwi Rahmawati,X UPW,UPW
Adinda Thania Salsabila,X TKKR,TKKR
Amelia Ratna Dewanti,X TKKR,TKKR
Anes Siskana,X TKKR,TKKR
Aniza Bunga Mareta,X TKKR,TKKR
Cilsilya Ari Sanggita,X TKKR,TKKR
Dama Rika Natalia,X TKKR,TKKR
Dian Purnamasari,X TKKR,TKKR
Dresa Eki Vebrianti,X TKKR,TKKR
Elsana Nindiya Safia Rista,X TKKR,TKKR
Erly Septia Vinata,X TKKR,TKKR
Fahdia Alya Rahardani,X TKKR,TKKR
Hana Widya Pangesti,X TKKR,TKKR
Linda Apriana Rahmarisa,X TKKR,TKKR
Lusyiana Nursanti,X TKKR,TKKR
Marsya Fidina Azzachri,X TKKR,TKKR
Mayang Imut Lestari,X TKKR,TKKR
Meyla Astuti,X TKKR,TKKR
Nabila Setyabekti Rahmadhani,X TKKR,TKKR
Nadhifah Septia Safitri,X TKKR,TKKR
Nova Linda Permata Sari,X TKKR,TKKR
Novita Budiarti,X TKKR,TKKR
Oktavia Eka Rahmadhani,X TKKR,TKKR
Risca Humaila Rizqi,X TKKR,TKKR
Rivindi Trivia Adista,X TKKR,TKKR
Sefie Okta Safana,X TKKR,TKKR
Suci Aprilisa,X TKKR,TKKR
Tika Aulia Meilina,X TKKR,TKKR
Tyara Gadis Widyawati,X TKKR,TKKR
Via Rahmadhani,X TKKR,TKKR
Wahyu Wijayanti,X TKKR,TKKR
Zaskya Maulina,X TKKR,TKKR
Adella Nindy Antika,X TB 1,TB
Audi Febri Anggitaledyana,X TB 1,TB
Aulia Dwi Fanny,X TB 1,TB
Brenda Sessilia,X TB 1,TB
Dealova Kurnia Dewi,X TB 1,TB
Dias Sukma Ningsih,X TB 1,TB
Dinna Ayu Safitri,X TB 1,TB
Evellyne Nindya Daffa,X TB 1,TB
Frizka Agustin Herlina,X TB 1,TB
Irul Maesaroh,X TB 1,TB
Luna Dwi Nur Baiti,X TB 1,TB
Minhatul Aiinin Hanifah,X TB 1,TB
Minhatun Aanin Hafifah,X TB 1,TB
Nurul Nadia,X TB 1,TB
Septiani Risqi Dahniar,X TB 1,TB
Tina Kusumawardani,X TB 1,TB
Viasa Reza Aulia Sugisri,X TB 1,TB
Aidila Olivia Putri Ristanti,X TB 2,TB
Aisha Candrakanti,X TB 2,TB
Charly Hatta Rusmanto,X TB 2,TB
Dwi Anggraini,X TB 2,TB
Elly Widya Ledianti,X TB 2,TB
Izzazava Azzahra,X TB 2,TB
Kartika Indah Sari,X TB 2,TB
Lintang Pambayun Fadilla Putri,X TB 2,TB
Livia Citra Dewi Ananda Putri,X TB 2,TB
Meika Nur Agustin,X TB 2,TB
Mutia Dewi Saputri,X TB 2,TB
Naura Wafi,X TB 2,TB
Nindhia Hartamadinda Muryanto,X TB 2,TB
Novira Budiarti,X TB 2,TB
Priti Alifia Rahmawati,X TB 2,TB
Sherli Jovina Putri,X TB 2,TB
Vevi Nur Anisa,X TB 2,TB
Yeni Dwi Putri Renasari,X TB 2,TB
Agha Danish,X DKV,DKV
Aldian Aji Destanuwardana,X DKV,DKV
Desta Aprilian Argadynatha,X DKV,DKV
Faiz Abiyyuzaki,X DKV,DKV
Farid Akhayar Ubaidillah,X DKV,DKV
Hanip Putra Pratama,X DKV,DKV
Hiffen Bilhaq Satria Utomo,X DKV,DKV
Iqbal Akbar Nur Ramadhan,X DKV,DKV
Joe Shandy Syaka Al Fitrah,X DKV,DKV
Nabiel Dwi Yudhana,X DKV,DKV
Ragil Ananda Putra Sudarsono,X DKV,DKV
Ramadhan Arifatul Rijjal,X DKV,DKV
Rifqi Ardana,X DKV,DKV
Yuwandi Prasetya,X DKV,DKV
Danu Prasetyo,X ANM,ANM
Denissa Nabilla Amanda,X ANM,ANM
Dwi Andriana,X ANM,ANM
Farrell Hany Albryano,X ANM,ANM
Galing Ariansyah,X ANM,ANM
Muhammad Akbar Shahidu Shuhada,X ANM,ANM
Ridho Yoga Pamungkas,X ANM,ANM
Riswan Dwi Aprianto,X ANM,ANM
Temy Septiyadi,X ANM,ANM
Abidatullah,X KKBT,KKBT
Adianita Ananda,X KKBT,KKBT
Annisa Setiowati,X KKBT,KKBT
Deffina Aulya Putri Pratiwi,X KKBT,KKBT
Defi Herlina Putri,X KKBT,KKBT
Desta Helmi Fernanda,X KKBT,KKBT
Endi Joko Prasthiono,X KKBT,KKBT
Imanda Ayu Hasanah,X KKBT,KKBT
Nafisha Cahya Arshila,X KKBT,KKBT
Septyana Delta Pangesty,X KKBT,KKBT
Sevin Bela Sari,X KKBT,KKBT
Tika Nur Aini,X KKBT,KKBT
Wilda Widiastuti,X KKBT,KKBT
Abdul Komar,X KKKI,KKKI
Adi Putra Pratama,X KKKI,KKKI
Adib Fikha Najah,X KKKI,KKKI
Alin Nur Kristian,X KKKI,KKKI
Ikhwanul Ni'Am,X KKKI,KKKI
Jesicca Amelia Putri,X KKKI,KKKI
Lena Vebriana,X KKKI,KKKI
Muhammad Ardiansah,X KKKI,KKKI
Nur Afivah,X KKKI,KKKI
Nur Asih,X KKKI,KKKI
Retno Listya Elsabela,X KKKI,KKKI
Sumarno,X KKKI,KKKI
Adefa Febri Settiawan,X KKKR,KKKR
Afiq Nuhibbin Azzuhri,X KKKR,KKKR
Afri Irgi Saputra,X KKKR,KKKR
Agus Andrianto,X KKKR,KKKR
Andrian Rahmadani,X KKKR,KKKR
Ardimas Arya Adi Tomox,X KKKR,KKKR
Bayu Saputra,X KKKR,KKKR
Briyan Rifky Andriyanto,X KKKR,KKKR
Dhiffa Hadi Pratama,X KKKR,KKKR
Dian Saputra,X KKKR,KKKR
Dyo Ardianto,X KKKR,KKKR
Febrian Ardi Nugroho,X KKKR,KKKR
Firdiyan Putra Pratama,X KKKR,KKKR
Muh Rifai,X KKKR,KKKR
Muhamad Faas Aji Vidiyansyah,X KKKR,KKKR
Muhamad Hanif Rizqullah,X KKKR,KKKR
Muhammad Afwan Zaid,X KKKR,KKKR
Ragaza Cahya Erlangga,X KKKR,KKKR
Rizki Prasetya Nugraha,X KKKR,KKKR
Tito Aditya Pratama,X KKKR,KKKR
Yoga Adi Surya Pangestu,X KKKR,KKKR
Rendy Dwi Cahya Putra,X KKKR,KKKR
Andika Dwi Putra,X ANM,ANM
Ali Mustofa,X ANM,ANM
Bagas Alfino Putra,X DKV,DKV
Afrizal Desta Suryana,X DPIB,DPIB
Ilham Ahnaf Ronalda,X DPIB,DPIB
Shinta Widya Hastuti,X DPIB,DPIB
Witdiana,X KKBT,KKBT
Stevano Ferlie Akbar,X RPL,RPL
Marlina Kasitra Putri,X TB 2,TB
Adityo Pratama,X TKJ 2,TKJ
M. Yusuf Cahya Adhi N.,X MM 1,MM
Vendi Aji Saputra,X DKV,DKV
Adam Romiamsyah,X KKKI,KKKI
Devi Ravina Nur Saputri,X KKKI,KKKI
Dimas Pramono Putra,X RPL,RPL
Ika Susanti,X KKBT,KKBT
Arfek Kurniafi,X KKKI,KKKI
Arya Dwi Cahya,X KKKI,KKKI
Arjuno Sandi Pratama,X KKKI,KKKI
Andhika Dwi Darmawan,X KKKI,KKKI
Ike Shinephi Agustin,X KKKI,KKKI
Suksmalina Argarini,X TKKR,TKKR
Muhammad Rafli Widyanto,X MM 2,MM
Asep Mur Setiono,X KKKI,KKKI
Juan Eris Sandro Simamora,XI TKJ 3,TKJ
Dimas Ferdi Andrian,X KKBT,KKBT
Aftiyan Ardi Tiawan,X KKBT,KKBT
Rifky Ruandika Ardian Saputra,X KKBT,KKBT
Fendi Yoga Pratama,X KKBT,KKBT
Agung Priyanto,X KKBT,KKBT
Marsa Dwi Ananta,X KKBT,KKBT
Lusiana Intan Wigati,XII TB 2,TB
Tri Aditya Saputra,X KKKR,KKKR
Muchamad Firman Eka Daniarto,X UPW,UPW
Erzi Sindi Lestari,XI MM 2,MM
Bagas Satrio,X KKBT,KKBT
Kelvin Indra Lesmana,X ANM,ANM
Sally Tia Amanda,X TKKR,TKKR
Yunita Purbasari,X TKJ 3,TKJ
Finda Amalia Andini,XI MM 1,MM
Eveline Rachma Kus Putri,X TKKR,TKKR
Bella Kartika Sari,X TB 2,X TB 2
Tunarsih,XII TKKR,TKKR
Sanju Gus Ramhal,X TB 1,TB
Hendrik Susilo,X KKKR,KKKR
Septia Mela Griselda,XI TKKR,TKKR
Someone,X RPL,TKKR
Somebody,XII RPL,DPIBzz,xx,DPIB
